..........
----------------------------------------------------------------------
Ran 10 tests in 0.001s

OK
Name             Stmts   Miss Branch BrPart  Cover   Missing
------------------------------------------------------------
Netflix.py          50      2      8      1    95%   57-58, 56->57
TestNetflix.py      42      0      0      0   100%
------------------------------------------------------------
TOTAL               92      2      8      1    97%

NOTE: 

Lines 56-58 are on the get_cache method, which does not need to be inside coverage.
When run on local machine, lines related to get_cache from filesystem will not be executed.
When run on CS machine, line related to get_cache from web will not be executed.

